16.16 1.65 38.35 60.75 25.44 25.44 15.0
16.16 1.65 59.15 59.15 25.44 25.44 12.0
16.16 1.65 59.15 60.75 24.64 24.64 14.0
16.16 1.65 60.75 38.35 25.44 25.44 15.0
16.16 1.65 60.75 59.15 24.64 24.64 14.0
16.16 38.35 1.65 60.75 25.44 25.44 15.0
16.16 38.35 38.35 59.15 25.44 25.44 7.0
16.16 38.35 38.35 60.75 24.64 24.64 9.0
16.16 38.35 59.15 38.35 25.44 25.44 7.0
16.16 38.35 59.15 59.15 24.64 24.64 6.0
16.16 38.35 60.75 1.65 25.44 25.44 15.0
16.16 38.35 60.75 38.35 24.64 24.64 9.0
16.16 59.15 1.65 59.15 25.44 25.44 12.0
16.16 59.15 1.65 60.75 24.64 24.64 14.0
16.16 59.15 38.35 38.35 25.44 25.44 7.0
16.16 59.15 38.35 59.15 24.64 24.64 6.0
16.16 59.15 59.15 1.65 25.44 25.44 12.0
16.16 59.15 59.15 38.35 24.64 24.64 6.0
16.16 59.15 60.75 1.65 24.64 24.64 15.0
16.16 60.75 1.65 38.35 25.44 25.44 15.0
16.16 60.75 1.65 59.15 24.64 24.64 14.0
16.16 60.75 38.35 1.65 25.44 25.44 15.0
16.16 60.75 38.35 38.35 24.64 24.64 9.0
16.16 60.75 59.15 1.65 24.64 24.64 15.0
#