-16.16 -59.15 -59.15 -59.15 -25.44 -25.44 1.0 
-16.16 -59.15 -59.15 -60.75 -25.44 -25.44 2.0 
-16.16 -59.15 -60.75 -59.15 -25.44 -25.44 2.0 
-16.16 -59.15 -60.75 -60.75 -25.44 -25.44 3.0 
-16.16 -60.75 -59.15 -59.15 -25.44 -25.44 3.0 
-16.16 -60.75 -59.15 -60.75 -25.44 -25.44 11.0 
-16.16 -60.75 -60.75 -59.15 -25.44 -25.44 11.0 
-16.16 -60.75 -60.75 -60.75 -25.44 -25.44 19.0
