\relax 
\@writefile{toc}{\contentsline {chapter}{\numberline {8}Advanced Topics}{101}{chapter.8}}
\@writefile{lof}{\addvspace {10\p@ }}
\@writefile{lot}{\addvspace {10\p@ }}
\@writefile{toc}{\contentsline {section}{\numberline {8.1}PISA Integration}{101}{section.8.1}}
\@writefile{toc}{\contentsline {subsection}{\numberline {8.1.1}Adding a PISA Selector}{103}{subsection.8.1.1}}
\@writefile{toc}{\contentsline {subsection}{\numberline {8.1.2}Troubleshooting}{104}{subsection.8.1.2}}
\@writefile{toc}{\contentsline {subsection}{\numberline {8.1.3}Customization}{105}{subsection.8.1.3}}
\@writefile{toc}{\contentsline {section}{\numberline {8.2}Configuring Hypervolume Calculation}{106}{section.8.2}}
\@writefile{toc}{\contentsline {section}{\numberline {8.3}Storing Large Datasets}{107}{section.8.3}}
\@writefile{toc}{\contentsline {subsection}{\numberline {8.3.1}Writing Result Files}{108}{subsection.8.3.1}}
\@writefile{toc}{\contentsline {subsection}{\numberline {8.3.2}Extract Information from Result Files}{109}{subsection.8.3.2}}
\@writefile{toc}{\contentsline {section}{\numberline {8.4}Dealing with Maximized Objectives}{111}{section.8.4}}
\newlabel{sect:maximizing}{{8.4}{111}{Dealing with Maximized Objectives\relax }{section.8.4}{}}
\@setckpt{advanced}{
\setcounter{page}{112}
\setcounter{equation}{0}
\setcounter{enumi}{2}
\setcounter{enumii}{4}
\setcounter{enumiii}{0}
\setcounter{enumiv}{0}
\setcounter{footnote}{1}
\setcounter{mpfootnote}{0}
\setcounter{part}{2}
\setcounter{chapter}{8}
\setcounter{section}{4}
\setcounter{subsection}{0}
\setcounter{subsubsection}{0}
\setcounter{paragraph}{0}
\setcounter{subparagraph}{0}
\setcounter{figure}{0}
\setcounter{table}{0}
\setcounter{Item}{59}
\setcounter{Hfootnote}{1}
\setcounter{bookmark@seq@number}{95}
\setcounter{lstnumber}{4}
\setcounter{parentequation}{0}
\setcounter{section@level}{1}
\setcounter{lstlisting}{0}
}
