\relax 
\@writefile{toc}{\contentsline {chapter}{\numberline {7}Comparative Studies}{77}{chapter.7}}
\@writefile{lof}{\addvspace {10\p@ }}
\@writefile{lot}{\addvspace {10\p@ }}
\@writefile{toc}{\contentsline {section}{\numberline {7.1}What are Comparative Studies?}{77}{section.7.1}}
\@writefile{toc}{\contentsline {subsection}{\numberline {7.1.1}Problem Domain}{78}{subsection.7.1.1}}
\@writefile{toc}{\contentsline {subsection}{\numberline {7.1.2}Goals of Optimization}{78}{subsection.7.1.2}}
\@writefile{toc}{\contentsline {subsection}{\numberline {7.1.3}Parameterization}{78}{subsection.7.1.3}}
\@writefile{toc}{\contentsline {subsection}{\numberline {7.1.4}Algorithm Selection}{79}{subsection.7.1.4}}
\@writefile{toc}{\contentsline {section}{\numberline {7.2}Executing Commands}{79}{section.7.2}}
\@writefile{toc}{\contentsline {section}{\numberline {7.3}Parameter Description File}{81}{section.7.3}}
\@writefile{toc}{\contentsline {section}{\numberline {7.4}Generating Parameter Samples}{81}{section.7.4}}
\@writefile{toc}{\contentsline {section}{\numberline {7.5}Evaluation}{82}{section.7.5}}
\@writefile{toc}{\contentsline {section}{\numberline {7.6}Check Completion}{83}{section.7.6}}
\@writefile{toc}{\contentsline {section}{\numberline {7.7}Reference Set Generation}{84}{section.7.7}}
\@writefile{toc}{\contentsline {section}{\numberline {7.8}Metric Calculation}{84}{section.7.8}}
\@writefile{toc}{\contentsline {section}{\numberline {7.9}Averaging Metrics}{85}{section.7.9}}
\@writefile{toc}{\contentsline {section}{\numberline {7.10}Analysis}{85}{section.7.10}}
\@writefile{toc}{\contentsline {subsection}{\numberline {7.10.1}Best}{86}{subsection.7.10.1}}
\@writefile{toc}{\contentsline {subsection}{\numberline {7.10.2}Attainment}{86}{subsection.7.10.2}}
\@writefile{toc}{\contentsline {subsection}{\numberline {7.10.3}Efficiency}{87}{subsection.7.10.3}}
\@writefile{toc}{\contentsline {section}{\numberline {7.11}Set Contribution}{87}{section.7.11}}
\@writefile{toc}{\contentsline {section}{\numberline {7.12}Sobol Analysis}{88}{section.7.12}}
\@writefile{toc}{\contentsline {section}{\numberline {7.13}Example Script File (Unix/Linux)}{91}{section.7.13}}
\@writefile{toc}{\contentsline {section}{\numberline {7.14}PBS Job Scripting (Unix)}{94}{section.7.14}}
\@writefile{toc}{\contentsline {section}{\numberline {7.15}Troubleshooting}{95}{section.7.15}}
\@setckpt{comparison}{
\setcounter{page}{100}
\setcounter{equation}{0}
\setcounter{enumi}{8}
\setcounter{enumii}{2}
\setcounter{enumiii}{0}
\setcounter{enumiv}{0}
\setcounter{footnote}{0}
\setcounter{mpfootnote}{0}
\setcounter{part}{2}
\setcounter{chapter}{7}
\setcounter{section}{15}
\setcounter{subsection}{0}
\setcounter{subsubsection}{0}
\setcounter{paragraph}{0}
\setcounter{subparagraph}{0}
\setcounter{figure}{0}
\setcounter{table}{0}
\setcounter{Item}{38}
\setcounter{Hfootnote}{0}
\setcounter{bookmark@seq@number}{85}
\setcounter{lstnumber}{17}
\setcounter{parentequation}{0}
\setcounter{section@level}{1}
\setcounter{lstlisting}{0}
}
