\relax 
\@writefile{toc}{\contentsline {chapter}{\numberline {9}Developer Guide}{115}{chapter.9}}
\@writefile{lof}{\addvspace {10\p@ }}
\@writefile{lot}{\addvspace {10\p@ }}
\@writefile{toc}{\contentsline {section}{\numberline {9.1}Version Numbers}{115}{section.9.1}}
\@writefile{toc}{\contentsline {section}{\numberline {9.2}Release Cycle}{116}{section.9.2}}
\@writefile{toc}{\contentsline {section}{\numberline {9.3}API Deprecation}{116}{section.9.3}}
\@writefile{toc}{\contentsline {section}{\numberline {9.4}Code Style}{117}{section.9.4}}
\@writefile{toc}{\contentsline {section}{\numberline {9.5}Licensing}{121}{section.9.5}}
\@writefile{toc}{\contentsline {section}{\numberline {9.6}Web Presence}{121}{section.9.6}}
\@writefile{toc}{\contentsline {section}{\numberline {9.7}Ways to Contribute}{122}{section.9.7}}
\@writefile{toc}{\contentsline {subsection}{\numberline {9.7.1}Translations}{122}{subsection.9.7.1}}
\@setckpt{developer}{
\setcounter{page}{124}
\setcounter{equation}{0}
\setcounter{enumi}{2}
\setcounter{enumii}{4}
\setcounter{enumiii}{0}
\setcounter{enumiv}{0}
\setcounter{footnote}{0}
\setcounter{mpfootnote}{0}
\setcounter{part}{3}
\setcounter{chapter}{9}
\setcounter{section}{7}
\setcounter{subsection}{1}
\setcounter{subsubsection}{0}
\setcounter{paragraph}{0}
\setcounter{subparagraph}{0}
\setcounter{figure}{0}
\setcounter{table}{0}
\setcounter{Item}{59}
\setcounter{Hfootnote}{1}
\setcounter{bookmark@seq@number}{105}
\setcounter{lstnumber}{10}
\setcounter{parentequation}{0}
\setcounter{section@level}{2}
\setcounter{lstlisting}{0}
}
