\relax 
\@writefile{toc}{\contentsline {chapter}{\numberline {4}Diagnostic Tool}{35}{chapter.4}}
\@writefile{lof}{\addvspace {10\p@ }}
\@writefile{lot}{\addvspace {10\p@ }}
\@writefile{toc}{\contentsline {section}{\numberline {4.1}Running the Diagnostic Tool}{35}{section.4.1}}
\@writefile{toc}{\contentsline {paragraph}{Compiled Binaries}{35}{section*.19}}
\@writefile{toc}{\contentsline {paragraph}{All-in-One Executable}{35}{section*.20}}
\@writefile{lof}{\contentsline {figure}{\numberline {4.1}{\ignorespaces The main window of the diagnostic tool.}}{36}{figure.4.1}}
\newlabel{fig:diagnosticToolAnnotated}{{4.1}{36}{The main window of the diagnostic tool}{figure.4.1}{}}
\@writefile{toc}{\contentsline {paragraph}{Source Code}{36}{section*.21}}
\@writefile{toc}{\contentsline {section}{\numberline {4.2}Layout of the GUI}{36}{section.4.2}}
\@writefile{toc}{\contentsline {section}{\numberline {4.3}Quantile Plots vs Individual Traces}{37}{section.4.3}}
\@writefile{lof}{\contentsline {figure}{\numberline {4.2}{\ignorespaces Screenshot of the diagnostic tool displaying two side-by-side metrics. You can select as many metrics to display by holding down the Alt key and clicking a row in the displayed metrics table.}}{38}{figure.4.2}}
\newlabel{fig:diagnosticToolMultiselect}{{4.2}{38}{Screenshot of the diagnostic tool displaying two side-by-side metrics. You can select as many metrics to display by holding down the Alt key and clicking a row in the displayed metrics table}{figure.4.2}{}}
\@writefile{lof}{\contentsline {figure}{\numberline {4.3}{\ignorespaces Screenshot of the diagnostic tool displaying the individual traces rather than the quantile view. The individual traces provide access to the raw data, but the quantile view is often easier to interpret.}}{39}{figure.4.3}}
\newlabel{fig:diagnosticToolTraces}{{4.3}{39}{Screenshot of the diagnostic tool displaying the individual traces rather than the quantile view. The individual traces provide access to the raw data, but the quantile view is often easier to interpret}{figure.4.3}{}}
\@writefile{toc}{\contentsline {section}{\numberline {4.4}Viewing Approximation Set Dynamics}{40}{section.4.4}}
\@writefile{lof}{\contentsline {figure}{\numberline {4.4}{\ignorespaces Screenshot of the approximation set viewer. This allows you to view the approximation set at any point in the algorithm's execution.}}{41}{figure.4.4}}
\newlabel{fig:approximationSetViewerAnnotated}{{4.4}{41}{Screenshot of the approximation set viewer. This allows you to view the approximation set at any point in the algorithm's execution}{figure.4.4}{}}
\@writefile{toc}{\contentsline {section}{\numberline {4.5}Statistical Results}{42}{section.4.5}}
\@writefile{lof}{\contentsline {figure}{\numberline {4.5}{\ignorespaces Screenshot of the statistics output by the diagnostic tool.}}{43}{figure.4.5}}
\newlabel{fig:statisticalResultsViewer}{{4.5}{43}{Screenshot of the statistics output by the diagnostic tool}{figure.4.5}{}}
\@writefile{toc}{\contentsline {section}{\numberline {4.6}Advanced Use}{44}{section.4.6}}
\@writefile{toc}{\contentsline {subsection}{\numberline {4.6.1}Improving Performance and Memory Efficiency}{44}{subsection.4.6.1}}
\@setckpt{diagnostic}{
\setcounter{page}{45}
\setcounter{equation}{0}
\setcounter{enumi}{4}
\setcounter{enumii}{0}
\setcounter{enumiii}{0}
\setcounter{enumiv}{0}
\setcounter{footnote}{0}
\setcounter{mpfootnote}{0}
\setcounter{part}{1}
\setcounter{chapter}{4}
\setcounter{section}{6}
\setcounter{subsection}{1}
\setcounter{subsubsection}{0}
\setcounter{paragraph}{0}
\setcounter{subparagraph}{0}
\setcounter{figure}{5}
\setcounter{table}{0}
\setcounter{Item}{14}
\setcounter{Hfootnote}{0}
\setcounter{bookmark@seq@number}{39}
\setcounter{lstnumber}{2}
\setcounter{parentequation}{0}
\setcounter{section@level}{2}
\setcounter{lstlisting}{0}
}
