\relax 
\@writefile{toc}{\contentsline {chapter}{\numberline {10}Errors and Warning Messages}{125}{chapter.10}}
\@writefile{lof}{\addvspace {10\p@ }}
\@writefile{lot}{\addvspace {10\p@ }}
\@writefile{toc}{\contentsline {section}{\numberline {10.1}Errors}{125}{section.10.1}}
\@writefile{toc}{\contentsline {section}{\numberline {10.2}Warnings}{134}{section.10.2}}
\@setckpt{errors}{
\setcounter{page}{138}
\setcounter{equation}{0}
\setcounter{enumi}{2}
\setcounter{enumii}{4}
\setcounter{enumiii}{0}
\setcounter{enumiv}{0}
\setcounter{footnote}{0}
\setcounter{mpfootnote}{0}
\setcounter{part}{3}
\setcounter{chapter}{10}
\setcounter{section}{2}
\setcounter{subsection}{0}
\setcounter{subsubsection}{0}
\setcounter{paragraph}{0}
\setcounter{subparagraph}{0}
\setcounter{figure}{0}
\setcounter{table}{0}
\setcounter{Item}{70}
\setcounter{Hfootnote}{1}
\setcounter{bookmark@seq@number}{108}
\setcounter{lstnumber}{10}
\setcounter{parentequation}{0}
\setcounter{section@level}{1}
\setcounter{lstlisting}{0}
}
