\relax 
\@writefile{toc}{\contentsline {chapter}{\numberline {3}Executor, Instrumenter, Analyzer}{21}{chapter.3}}
\@writefile{lof}{\addvspace {10\p@ }}
\@writefile{lot}{\addvspace {10\p@ }}
\@writefile{toc}{\contentsline {section}{\numberline {3.1}Executor}{21}{section.3.1}}
\@writefile{toc}{\contentsline {section}{\numberline {3.2}Instrumenter}{26}{section.3.2}}
\@writefile{toc}{\contentsline {section}{\numberline {3.3}Analyzer}{30}{section.3.3}}
\@writefile{toc}{\contentsline {section}{\numberline {3.4}Conclusion}{34}{section.3.4}}
\@setckpt{executor}{
\setcounter{page}{35}
\setcounter{equation}{0}
\setcounter{enumi}{5}
\setcounter{enumii}{0}
\setcounter{enumiii}{0}
\setcounter{enumiv}{0}
\setcounter{footnote}{0}
\setcounter{mpfootnote}{0}
\setcounter{part}{1}
\setcounter{chapter}{3}
\setcounter{section}{4}
\setcounter{subsection}{0}
\setcounter{subsubsection}{0}
\setcounter{paragraph}{0}
\setcounter{subparagraph}{0}
\setcounter{figure}{0}
\setcounter{table}{0}
\setcounter{Item}{5}
\setcounter{Hfootnote}{0}
\setcounter{bookmark@seq@number}{31}
\setcounter{lstnumber}{17}
\setcounter{parentequation}{0}
\setcounter{section@level}{1}
\setcounter{lstlisting}{0}
}
