\relax 
\@writefile{toc}{\contentsline {chapter}{\numberline {2}Installation Instructions}{11}{chapter.2}}
\@writefile{lof}{\addvspace {10\p@ }}
\@writefile{lot}{\addvspace {10\p@ }}
\@writefile{toc}{\contentsline {section}{\numberline {2.1}Understanding the License}{11}{section.2.1}}
\@writefile{toc}{\contentsline {section}{\numberline {2.2}Which Distribution is Right for Me?}{12}{section.2.2}}
\@writefile{toc}{\contentsline {paragraph}{Compiled Binaries}{12}{section*.13}}
\@writefile{toc}{\contentsline {paragraph}{All-in-One Executable}{12}{section*.14}}
\@writefile{toc}{\contentsline {paragraph}{Source Code}{12}{section*.15}}
\@writefile{toc}{\contentsline {section}{\numberline {2.3}Obtaining a Copy}{12}{section.2.3}}
\@writefile{toc}{\contentsline {section}{\numberline {2.4}Installing Dependencies}{13}{section.2.4}}
\@writefile{toc}{\contentsline {subsection}{\numberline {2.4.1}Java 6+ (Required)}{13}{subsection.2.4.1}}
\@writefile{toc}{\contentsline {subsection}{\numberline {2.4.2}Eclipse or NetBeans (Optional)}{14}{subsection.2.4.2}}
\@writefile{toc}{\contentsline {subsection}{\numberline {2.4.3}Apache Ant (Optional)}{14}{subsection.2.4.3}}
\@writefile{toc}{\contentsline {section}{\numberline {2.5}Importing into Eclipse}{15}{section.2.5}}
\@writefile{toc}{\contentsline {section}{\numberline {2.6}Importing into NetBeans}{15}{section.2.6}}
\@writefile{lof}{\contentsline {figure}{\numberline {2.1}{\ignorespaces How the NetBeans properties window should appear in the MOEA Framework is properly configured.}}{16}{figure.2.1}}
\newlabel{fig:netbeans}{{2.1}{16}{How the NetBeans properties window should appear in the MOEA Framework is properly configured}{figure.2.1}{}}
\@writefile{toc}{\contentsline {section}{\numberline {2.7}Testing your Installation}{17}{section.2.7}}
\@writefile{toc}{\contentsline {paragraph}{Compiled Binaries}{17}{section*.16}}
\@writefile{toc}{\contentsline {paragraph}{All-in-One Executable}{17}{section*.17}}
\@writefile{toc}{\contentsline {paragraph}{Source Code}{17}{section*.18}}
\@writefile{toc}{\contentsline {section}{\numberline {2.8}Distribution Contents}{17}{section.2.8}}
\@writefile{toc}{\contentsline {subsection}{\numberline {2.8.1}Compiled Binary Contents}{17}{subsection.2.8.1}}
\@writefile{toc}{\contentsline {subsection}{\numberline {2.8.2}Source Code Contents}{19}{subsection.2.8.2}}
\@writefile{toc}{\contentsline {section}{\numberline {2.9}Conclusion}{20}{section.2.9}}
\@setckpt{installation}{
\setcounter{page}{21}
\setcounter{equation}{0}
\setcounter{enumi}{0}
\setcounter{enumii}{0}
\setcounter{enumiii}{0}
\setcounter{enumiv}{0}
\setcounter{footnote}{0}
\setcounter{mpfootnote}{0}
\setcounter{part}{1}
\setcounter{chapter}{2}
\setcounter{section}{9}
\setcounter{subsection}{0}
\setcounter{subsubsection}{0}
\setcounter{paragraph}{0}
\setcounter{subparagraph}{0}
\setcounter{figure}{1}
\setcounter{table}{0}
\setcounter{Item}{0}
\setcounter{Hfootnote}{0}
\setcounter{bookmark@seq@number}{26}
\setcounter{lstnumber}{2}
\setcounter{parentequation}{0}
\setcounter{section@level}{1}
\setcounter{lstlisting}{0}
}
