\relax 
\@writefile{toc}{\contentsline {chapter}{\numberline {1}Introduction}{1}{chapter.1}}
\@writefile{lof}{\addvspace {10\p@ }}
\@writefile{lot}{\addvspace {10\p@ }}
\@writefile{toc}{\contentsline {section}{\numberline {1.1}Key Features}{2}{section.1.1}}
\@writefile{toc}{\contentsline {paragraph}{Fast, reliable implementations of many state-of-the-art multiobjective evolutionary algorithms.}{2}{section*.6}}
\@writefile{toc}{\contentsline {paragraph}{Extensible with custom algorithms, problems and operators.}{2}{section*.7}}
\@writefile{toc}{\contentsline {paragraph}{Modular design for constructing new optimization algorithms from existing components.}{2}{section*.8}}
\@writefile{toc}{\contentsline {paragraph}{Permissive open source license.}{2}{section*.9}}
\@writefile{toc}{\contentsline {paragraph}{Fully documented source code.}{2}{section*.10}}
\@writefile{toc}{\contentsline {paragraph}{Extensive support available online.}{3}{section*.11}}
\@writefile{toc}{\contentsline {paragraph}{Over 1000 test cases to ensure validity.}{3}{section*.12}}
\@writefile{toc}{\contentsline {section}{\numberline {1.2}Other Java Frameworks}{3}{section.1.2}}
\@writefile{toc}{\contentsline {subsection}{\numberline {1.2.1}Watchmaker Framework}{3}{subsection.1.2.1}}
\@writefile{toc}{\contentsline {subsection}{\numberline {1.2.2}ECJ}{4}{subsection.1.2.2}}
\@writefile{toc}{\contentsline {subsection}{\numberline {1.2.3}jMetal}{5}{subsection.1.2.3}}
\@writefile{toc}{\contentsline {subsection}{\numberline {1.2.4}Opt4J}{5}{subsection.1.2.4}}
\@writefile{toc}{\contentsline {subsection}{\numberline {1.2.5}Others}{6}{subsection.1.2.5}}
\@writefile{toc}{\contentsline {section}{\numberline {1.3}Reporting Bugs}{6}{section.1.3}}
\@writefile{toc}{\contentsline {section}{\numberline {1.4}Getting Help}{7}{section.1.4}}
\@setckpt{introduction}{
\setcounter{page}{8}
\setcounter{equation}{0}
\setcounter{enumi}{0}
\setcounter{enumii}{0}
\setcounter{enumiii}{0}
\setcounter{enumiv}{0}
\setcounter{footnote}{0}
\setcounter{mpfootnote}{0}
\setcounter{part}{0}
\setcounter{chapter}{1}
\setcounter{section}{4}
\setcounter{subsection}{0}
\setcounter{subsubsection}{0}
\setcounter{paragraph}{0}
\setcounter{subparagraph}{0}
\setcounter{figure}{0}
\setcounter{table}{0}
\setcounter{Item}{0}
\setcounter{Hfootnote}{0}
\setcounter{bookmark@seq@number}{10}
\setcounter{lstnumber}{1}
\setcounter{parentequation}{0}
\setcounter{section@level}{1}
\setcounter{lstlisting}{0}
}
