\relax 
\@writefile{toc}{\contentsline {chapter}{GNU Free Documentation License}{141}{chapter*.23}}
\@writefile{lof}{\addvspace {10\p@ }}
\@writefile{lot}{\addvspace {10\p@ }}
\@setckpt{license}{
\setcounter{page}{154}
\setcounter{equation}{0}
\setcounter{enumi}{15}
\setcounter{enumii}{4}
\setcounter{enumiii}{0}
\setcounter{enumiv}{0}
\setcounter{footnote}{0}
\setcounter{mpfootnote}{0}
\setcounter{part}{3}
\setcounter{chapter}{10}
\setcounter{section}{2}
\setcounter{subsection}{0}
\setcounter{subsubsection}{0}
\setcounter{paragraph}{0}
\setcounter{subparagraph}{0}
\setcounter{figure}{0}
\setcounter{table}{0}
\setcounter{Item}{85}
\setcounter{Hfootnote}{1}
\setcounter{bookmark@seq@number}{110}
\setcounter{lstnumber}{10}
\setcounter{parentequation}{0}
\setcounter{section@level}{1}
\setcounter{lstlisting}{0}
}
