\relax 
\providecommand\HyperFirstAtBeginDocument{\AtBeginDocument}
\HyperFirstAtBeginDocument{\ifx\hyper@anchor\@undefined
\global\let\oldcontentsline\contentsline
\gdef\contentsline#1#2#3#4{\oldcontentsline{#1}{#2}{#3}}
\global\let\oldnewlabel\newlabel
\gdef\newlabel#1#2{\newlabelxx{#1}#2}
\gdef\newlabelxx#1#2#3#4#5#6{\oldnewlabel{#1}{{#2}{#3}}}
\AtEndDocument{\ifx\hyper@anchor\@undefined
\let\contentsline\oldcontentsline
\let\newlabel\oldnewlabel
\fi}
\fi}
\global\let\hyper@last\relax 
\gdef\HyperFirstAtBeginDocument#1{#1}
\providecommand\HyField@AuxAddToFields[1]{}
\@input{title.aux}
\@input{copyright.aux}
\@input{preface.aux}
\@input{contributing.aux}
\@input{introduction.aux}
\@writefile{toc}{\contentsline {part}{I\hspace  {1em}Beginner's Guide - Installing and Using the MOEA Framework}{9}{part.1}}
\@input{installation.aux}
\@input{executor.aux}
\@input{diagnostic.aux}
\@input{problems.aux}
\@input{representations.aux}
\@writefile{toc}{\contentsline {part}{II\hspace  {1em}Advanced Guide - Large-Scale Experiments and other Advanced Topics}{75}{part.2}}
\@input{comparison.aux}
\@input{advanced.aux}
\@writefile{toc}{\contentsline {part}{III\hspace  {1em}Developer's Guide - Extending and Contributing to the MOEA Framework}{113}{part.3}}
\@input{developer.aux}
\@input{errors.aux}
\@input{credits.aux}
\@input{license.aux}
