\relax 
\@writefile{toc}{\contentsline {chapter}{\numberline {5}Defining New Problems}{45}{chapter.5}}
\@writefile{lof}{\addvspace {10\p@ }}
\@writefile{lot}{\addvspace {10\p@ }}
\newlabel{chpt:problems}{{5}{45}{Defining New Problems\relax }{chapter.5}{}}
\newlabel{eq:mop}{{5.1}{45}{Defining New Problems\relax }{equation.5.0.1}{}}
\@writefile{toc}{\contentsline {section}{\numberline {5.1}Java}{46}{section.5.1}}
\@writefile{toc}{\contentsline {section}{\numberline {5.2}Referencing the Problem}{48}{section.5.2}}
\@writefile{toc}{\contentsline {subsection}{\numberline {5.2.1}By Class}{48}{subsection.5.2.1}}
\@writefile{toc}{\contentsline {subsection}{\numberline {5.2.2}By Class Name}{49}{subsection.5.2.2}}
\@writefile{toc}{\contentsline {subsection}{\numberline {5.2.3}By Name}{49}{subsection.5.2.3}}
\@writefile{toc}{\contentsline {subsection}{\numberline {5.2.4}With a ProblemProvider}{50}{subsection.5.2.4}}
\@writefile{toc}{\contentsline {subsection}{\numberline {5.2.5}With the \texttt  {global.properties} File}{51}{subsection.5.2.5}}
\@writefile{toc}{\contentsline {section}{\numberline {5.3}C/C++}{52}{section.5.3}}
\@writefile{toc}{\contentsline {section}{\numberline {5.4}Scripting Language}{57}{section.5.4}}
\@writefile{toc}{\contentsline {section}{\numberline {5.5}Conclusion}{59}{section.5.5}}
\@setckpt{problems}{
\setcounter{page}{60}
\setcounter{equation}{1}
\setcounter{enumi}{2}
\setcounter{enumii}{0}
\setcounter{enumiii}{0}
\setcounter{enumiv}{0}
\setcounter{footnote}{0}
\setcounter{mpfootnote}{0}
\setcounter{part}{1}
\setcounter{chapter}{5}
\setcounter{section}{5}
\setcounter{subsection}{0}
\setcounter{subsubsection}{0}
\setcounter{paragraph}{0}
\setcounter{subparagraph}{0}
\setcounter{figure}{0}
\setcounter{table}{0}
\setcounter{Item}{24}
\setcounter{Hfootnote}{0}
\setcounter{bookmark@seq@number}{50}
\setcounter{lstnumber}{7}
\setcounter{parentequation}{0}
\setcounter{section@level}{1}
\setcounter{lstlisting}{0}
}
