\relax 
\@writefile{toc}{\contentsline {chapter}{\numberline {6}Representing Decision Variables}{61}{chapter.6}}
\@writefile{lof}{\addvspace {10\p@ }}
\@writefile{lot}{\addvspace {10\p@ }}
\newlabel{chpt:representations}{{6}{61}{Representing Decision Variables\relax }{chapter.6}{}}
\@writefile{toc}{\contentsline {section}{\numberline {6.1}Floating-Point Values}{61}{section.6.1}}
\@writefile{toc}{\contentsline {section}{\numberline {6.2}Integers}{63}{section.6.2}}
\@writefile{toc}{\contentsline {section}{\numberline {6.3}Bit Strings}{64}{section.6.3}}
\@writefile{toc}{\contentsline {section}{\numberline {6.4}Permutations}{65}{section.6.4}}
\@writefile{toc}{\contentsline {section}{\numberline {6.5}Programs (Expression Trees)}{66}{section.6.5}}
\@writefile{toc}{\contentsline {section}{\numberline {6.6}Grammars}{68}{section.6.6}}
\@writefile{toc}{\contentsline {section}{\numberline {6.7}Variation Operators}{70}{section.6.7}}
\@writefile{toc}{\contentsline {subsection}{\numberline {6.7.1}Initialization}{71}{subsection.6.7.1}}
\@writefile{toc}{\contentsline {subsection}{\numberline {6.7.2}Variation (Mutation \& Crossover)}{71}{subsection.6.7.2}}
\@writefile{lot}{\contentsline {table}{\numberline {6.1}{\ignorespaces List of Supported Variation Operators}}{72}{table.6.1}}
\newlabel{tbl:operators}{{6.1}{72}{List of Supported Variation Operators\relax }{table.6.1}{}}
\@writefile{toc}{\contentsline {section}{\numberline {6.8}Conclusion}{74}{section.6.8}}
\@setckpt{representations}{
\setcounter{page}{75}
\setcounter{equation}{0}
\setcounter{enumi}{2}
\setcounter{enumii}{0}
\setcounter{enumiii}{0}
\setcounter{enumiv}{0}
\setcounter{footnote}{0}
\setcounter{mpfootnote}{0}
\setcounter{part}{1}
\setcounter{chapter}{6}
\setcounter{section}{8}
\setcounter{subsection}{0}
\setcounter{subsubsection}{0}
\setcounter{paragraph}{0}
\setcounter{subparagraph}{0}
\setcounter{figure}{0}
\setcounter{table}{1}
\setcounter{Item}{24}
\setcounter{Hfootnote}{0}
\setcounter{bookmark@seq@number}{61}
\setcounter{lstnumber}{9}
\setcounter{parentequation}{0}
\setcounter{section@level}{1}
\setcounter{lstlisting}{0}
}
